pacoblaze/test_pacoblazer/dump.vcd
$date
	Thu Sep  5 22:37:35 2019
$end
$version
	Icarus Verilog
$end
$timescale
	10ps
$end
$scope module pacoblaze3_tb $end
$scope module dut $end
$var wire 10 ! address [9:0] $end
$var wire 8 " alu_operand_a [7:0] $end
$var wire 1 # clk $end
$var wire 8 $ in_port [7:0] $end
$var wire 1 % interrupt $end
$var wire 1 & interrupt_assert $end
$var wire 1 ' is_alu $end
$var wire 8 ( out_port [7:0] $end
$var wire 1 ) reset $end
$var wire 10 * stack_data_in [9:0] $end
$var wire 1 + stack_push_pop $end
$var wire 1 , stack_update_enable $end
$var wire 1 - stack_write_enable $end
$var wire 10 . stack_data_out [9:0] $end
$var wire 8 / scratch_data_out [7:0] $end
$var wire 6 0 scratch_address [5:0] $end
$var wire 8 1 register_y_data_out [7:0] $end
$var wire 8 2 register_x_data_out [7:0] $end
$var wire 8 3 register_x_data_in [7:0] $end
$var wire 10 4 program_counter_source [9:0] $end
$var wire 10 5 program_counter_next [9:0] $end
$var wire 8 6 port_id [7:0] $end
$var wire 1 7 is_returni $end
$var wire 1 8 is_return $end
$var wire 1 9 is_jump $end
$var wire 1 : is_input $end
$var wire 1 ; is_fetch $end
$var wire 1 < is_call $end
$var wire 1 = internal_reset $end
$var wire 18 > instruction [17:0] $end
$var wire 4 ? idu_y_address [3:0] $end
$var wire 4 @ idu_x_address [3:0] $end
$var wire 3 A idu_shift_operation [2:0] $end
$var wire 1 B idu_shift_direction $end
$var wire 1 C idu_shift_constant $end
$var wire 6 D idu_scratch_address [5:0] $end
$var wire 8 E idu_port_address [7:0] $end
$var wire 5 F idu_operation [4:0] $end
$var wire 1 G idu_operand_selection $end
$var wire 1 H idu_interrupt_enable $end
$var wire 8 I idu_implied_value [7:0] $end
$var wire 1 J idu_conditional $end
$var wire 2 K idu_condition_flags [1:0] $end
$var wire 10 L idu_code_address [9:0] $end
$var wire 1 M conditional_match $end
$var wire 1 N alu_zero_out $end
$var wire 8 O alu_result [7:0] $end
$var wire 8 P alu_operand_b [7:0] $end
$var wire 1 Q alu_carry_out $end
$var reg 1 R carry $end
$var reg 1 S carry_saved $end
$var reg 1 T interrupt_ack $end
$var reg 1 U interrupt_enable $end
$var reg 1 V interrupt_latch $end
$var reg 10 W program_counter [9:0] $end
$var reg 1 X read_strobe $end
$var reg 1 Y register_x_write_enable $end
$var reg 2 Z reset_latch [1:0] $end
$var reg 1 [ scratch_write_enable $end
$var reg 1 \ timing_control $end
$var reg 1 ] write_strobe $end
$var reg 1 ^ zero $end
$var reg 1 _ zero_carry_write_enable $end
$var reg 1 ` zero_saved $end
$scope module alu $end
$var wire 1 R carry_in $end
$var wire 8 a operand_a [7:0] $end
$var wire 8 b operand_b [7:0] $end
$var wire 1 N zero_out $end
$var wire 3 c shift_operation [2:0] $end
$var wire 1 B shift_direction $end
$var wire 1 C shift_constant $end
$var wire 1 d shift_bit $end
$var wire 5 e operation [4:0] $end
$var wire 9 f addsub_result [8:0] $end
$var wire 1 g addsub_carry $end
$var wire 8 h addsub_b [7:0] $end
$var reg 1 Q carry_out $end
$var reg 8 i result [7:0] $end
$scope begin on_alu $end
$upscope $end
$upscope $end
$scope module idu $end
$var wire 4 j y_address [3:0] $end
$var wire 4 k x_address [3:0] $end
$var wire 3 l shift_operation [2:0] $end
$var wire 1 B shift_direction $end
$var wire 1 C shift_constant $end
$var wire 6 m scratch_address [5:0] $end
$var wire 8 n port_address [7:0] $end
$var wire 1 G operand_selection $end
$var wire 1 H interrupt_enable $end
$var wire 5 o instruction_0 [4:0] $end
$var wire 18 p instruction [17:0] $end
$var wire 8 q implied_value [7:0] $end
$var wire 1 J conditional $end
$var wire 2 r condition_flags [1:0] $end
$var wire 10 s code_address [9:0] $end
$var reg 5 t operation [4:0] $end
$upscope $end
$scope module register $end
$var wire 1 # clk $end
$var wire 1 ) reset $end
$var wire 4 u x_address [3:0] $end
$var wire 8 v x_data_in [7:0] $end
$var wire 8 w x_data_out [7:0] $end
$var wire 1 Y x_write_enable $end
$var wire 4 x y_address [3:0] $end
$var wire 8 y y_data_out [7:0] $end
$upscope $end
$scope module scratch $end
$var wire 6 z address [5:0] $end
$var wire 1 # clk $end
$var wire 8 { data_in [7:0] $end
$var wire 8 | data_out [7:0] $end
$var wire 1 ) reset $end
$var wire 1 [ write_enable $end
$upscope $end
$scope module stack $end
$var wire 1 # clk $end
$var wire 10 } data_in [9:0] $end
$var wire 10 ~ data_out [9:0] $end
$var wire 1 + push_pop $end
$var wire 1 ) reset $end
$var wire 1 , update_enable $end
$var wire 1 - write_enable $end
$var wire 5 !" ptr_1 [4:0] $end
$var reg 5 "" ptr [4:0] $end
$var integer 32 #" i [31:0] $end
$upscope $end
$scope begin on_reset $end
$upscope $end
$scope begin seq $end
$scope begin on_internal_reset $end
$upscope $end
$scope begin on_run $end
$upscope $end
$upscope $end
$scope task execute $end
$var reg 5 $" operation [4:0] $end
$upscope $end
$upscope $end
$upscope $end
$scope module pacoblaze3_tb $end
$scope module dut $end
$scope module register $end
$var reg 8 %" \dpr[0] [7:0] $end
$upscope $end
$upscope $end
$upscope $end
$scope module pacoblaze3_tb $end
$scope module dut $end
$scope module register $end
$var reg 8 &" \dpr[1] [7:0] $end
$upscope $end
$upscope $end
$upscope $end
$scope module pacoblaze3_tb $end
$scope module dut $end
$scope module register $end
$var reg 8 '" \dpr[2] [7:0] $end
$upscope $end
$upscope $end
$upscope $end
$scope module pacoblaze3_tb $end
$scope module dut $end
$scope module register $end
$var reg 8 (" \dpr[3] [7:0] $end
$upscope $end
$upscope $end
$upscope $end
$scope module pacoblaze3_tb $end
$scope module dut $end
$scope module register $end
$var reg 8 )" \dpr[4] [7:0] $end
$upscope $end
$upscope $end
$upscope $end
$scope module pacoblaze3_tb $end
$scope module dut $end
$scope module register $end
$var reg 8 *" \dpr[5] [7:0] $end
$upscope $end
$upscope $end
$upscope $end
$scope module pacoblaze3_tb $end
$scope module dut $end
$scope module register $end
$var reg 8 +" \dpr[6] [7:0] $end
$upscope $end
$upscope $end
$upscope $end
$scope module pacoblaze3_tb $end
$scope module dut $end
$scope module register $end
$var reg 8 ," \dpr[7] [7:0] $end
$upscope $end
$upscope $end
$upscope $end
$scope module pacoblaze3_tb $end
$scope module dut $end
$scope module register $end
$var reg 8 -" \dpr[8] [7:0] $end
$upscope $end
$upscope $end
$upscope $end
$scope module pacoblaze3_tb $end
$scope module dut $end
$scope module register $end
$var reg 8 ." \dpr[9] [7:0] $end
$upscope $end
$upscope $end
$upscope $end
$scope module pacoblaze3_tb $end
$scope module dut $end
$scope module register $end
$var reg 8 /" \dpr[10] [7:0] $end
$upscope $end
$upscope $end
$upscope $end
$scope module pacoblaze3_tb $end
$scope module dut $end
$scope module register $end
$var reg 8 0" \dpr[11] [7:0] $end
$upscope $end
$upscope $end
$upscope $end
$scope module pacoblaze3_tb $end
$scope module dut $end
$scope module register $end
$var reg 8 1" \dpr[12] [7:0] $end
$upscope $end
$upscope $end
$upscope $end
$scope module pacoblaze3_tb $end
$scope module dut $end
$scope module register $end
$var reg 8 2" \dpr[13] [7:0] $end
$upscope $end
$upscope $end
$upscope $end
$scope module pacoblaze3_tb $end
$scope module dut $end
$scope module register $end
$var reg 8 3" \dpr[14] [7:0] $end
$upscope $end
$upscope $end
$upscope $end
$scope module pacoblaze3_tb $end
$scope module dut $end
$scope module register $end
$var reg 8 4" \dpr[15] [7:0] $end
$upscope $end
$upscope $end
$upscope $end
$enddefinitions $end
#0
$dumpvars
bx 4"
bx 3"
bx 2"
bx 1"
bx 0"
bx /"
bx ."
bx -"
bx ,"
bx +"
bx *"
bx )"
bx ("
bx '"
bx &"
bx %"
bx $"
b100000 #"
bx ""
bx !"
bx ~
bx }
bx |
bx {
bx z
bx y
bx x
bx w
bx v
bx u
bx t
bx s
bx r
bx q
bx p
bx o
bx n
bx m
b0xx l
bx k
bx j
bx i
bx h
xg
bx f
bx e
xd
b0xx c
bx b
bx a
x`
x_
x^
x]
x\
x[
bx Z
xY
xX
bx W
xV
xU
xT
xS
xR
0Q
bx P
bx O
xN
xM
bx L
bx K
xJ
bx I
xH
xG
bx F
bx E
bx D
xC
xB
b0xx A
bx @
bx ?
bx >
x=
x<
x;
x:
x9
x8
x7
bx 6
bx 5
bx 4
bx 3
bx 2
bx 1
bx 0
bx /
bx .
x-
x,
x+
bx *
1)
bx (
x'
0&
0%
bx $
0#
bx "
bx !
$end
#50
1-
1=
bx1 !"
0_
0T
0[
0Y
0]
0X
b11 Z
b0 ""
1#
#100
0#
#150
0V
0U
0R
0^
b0 !
b0 *
b0 }
b0 W
0\
1#
#200
0)
0#
#250
1M
0,
b1 5
0g
b0 .
b0 ~
b1 !"
b0 4
1+
1d
b111111 h
b111111 3
b111111 v
0'
0N
b111111 O
b111111 i
b111111 P
b111111 b
b111111 $
b111111 6
b111111 0
b111111 z
0;
0:
07
08
0<
09
b0 F
b0 e
b0 t
b111111 E
b111111 n
b111111 I
b111111 q
b11 K
b11 r
0J
1C
b11 A
b11 c
b11 l
1B
b111111 D
b111111 m
1H
b1100111111 L
b1100111111 s
0G
b11 ?
b11 j
b11 x
b1111 @
b1111 k
b1111 u
b0 o
b10 Z
b111100111111 >
b111100111111 p
1#
#300
0#
#350
0-
0=
b0 Z
1#
#400
0#
#450
b10 5
b1 4
1-
1Y
b1 !
b1 *
b1 }
b1 W
1\
b0 $"
1#
#500
0#
#550
b0 3
b0 v
0d
1N
b0 O
b0 i
b0 h
b0 $
b0 6
b0 P
b0 b
b0 0
b0 z
0-
b0 E
b0 n
b0 I
b0 q
0C
b0 A
b0 c
b0 l
0B
b0 D
b0 m
0H
b100000000 L
b100000000 s
b0 ?
b0 j
b0 x
b1101 @
b1101 k
b1101 u
0\
0Y
b111111 4"
bx f
bx "
bx a
bx (
bx 2
bx w
bx {
b110100000000 >
b110100000000 p
1#
#600
0#
#650
b11 5
b10 4
1-
1Y
b10 !
b10 *
b10 }
b10 W
1\
1#
#700
0#
#750
b110 5
b110 4
b110 3
b110 v
b110 h
0N
b110 O
b110 i
b110 $
b110 6
b110 P
b110 b
b110 0
b110 z
19
b11010 F
b11010 e
b11010 t
0-
b110 E
b110 n
b110 I
b110 q
b0 K
b0 r
b11 A
b11 c
b11 l
b110 D
b110 m
b110 L
b110 s
b0 @
b0 k
b0 u
b11010 o
0\
0Y
b0 2"
bx f
bx "
bx a
bx (
bx 2
bx w
bx {
b110100000000000110 >
b110100000000000110 p
1#
#800
0#
#850
1-
b110 !
b110 *
b110 }
b110 W
1\
b11010 $"
1#
#900
0#
#950
b1110 3
b1110 v
b1110 5
b1110 O
b1110 i
b1110 h
b1110 4
b1110 $
b1110 6
b1110 P
b1110 b
b1110 0
b1110 z
0-
b1110 E
b1110 n
b1110 I
b1110 q
1B
b1110 D
b1110 m
b1110 L
b1110 s
0\
b110100000000001110 >
b110100000000001110 p
1#
#1000
0#
#1050
1-
b1110 !
b1110 *
b1110 }
b1110 W
1\
1#
#1100
0#
#1150
b0 3
b0 v
b1111 5
1N
b0 O
b0 i
b0 h
b1110 4
b0 $
b0 6
b0 P
b0 b
b0 0
b0 z
09
b0 F
b0 e
b0 t
0-
b0 E
b0 n
b0 I
b0 q
b0 A
b0 c
b0 l
0B
b0 D
b0 m
b0 L
b0 s
b0 o
0\
b0 >
b0 p
1#
#1200
0#
#1250
b10000 5
b1111 4
1-
1Y
b1111 !
b1111 *
b1111 }
b1111 W
1\
b0 $"
1#
#1300
0#
#1350
b11111111 3
b11111111 v
1d
0N
b11111111 O
b11111111 i
b11111111 h
b11111111 $
b11111111 6
b11111111 P
b11111111 b
b111111 0
b111111 z
0-
b11111111 E
b11111111 n
b11111111 I
b11111111 q
1C
b11 A
b11 c
b11 l
1B
b111111 D
b111111 m
1H
b111111111 L
b111111111 s
b1111 ?
b1111 j
b1111 x
b1 @
b1 k
b1 u
0\
0Y
b0 %"
bx f
bx "
bx a
bx (
bx 2
bx w
bx {
b111111 1
b111111 y
b111111111 >
b111111111 p
1#
#1400
0#
#1450
b10001 5
b10000 4
1-
1Y
b10000 !
b10000 *
b10000 }
b10000 W
1\
1#
#1500
0#
#1550
1g
b11111111 3
b11111111 v
0Q
0d
1'
b11111111 h
b11111111 O
b11111111 i
b0 $
b0 6
b0 P
b0 b
b0 0
b0 z
b1010 F
b1010 e
b1010 t
0-
b0 E
b0 n
b0 I
b0 q
0C
b0 A
b0 c
b0 l
0B
b0 D
b0 m
0H
b100000000 L
b100000000 s
b0 1
b0 y
b0 ?
b0 j
b0 x
b1010 o
0\
0Y
b11111111 &"
b111111111 f
b11111111 "
b11111111 a
b11111111 (
b11111111 2
b11111111 w
b11111111 {
b10100000100000000 >
b10100000100000000 p
1#
#1600
0#
#1650
b10010 5
b10001 4
1-
1_
b10001 !
b10001 *
b10001 }
b10001 W
1\
b1010 $"
1#
#1700
0#
#1750
0M
b10010 5
b10001 4
0g
1d
b11111111 3
b11111111 v
0'
b11111111 P
b11111111 b
b11111111 $
b11111111 6
b111111 0
b111111 z
0N
b11111111 O
b11111111 i
19
b11010 F
b11010 e
b11010 t
0-
b10111 E
b10111 n
b10111 I
b10111 q
1J
1C
b11 A
b11 c
b11 l
b10111 D
b10111 m
1H
b10111 L
b10111 s
1G
b11111111 1
b11111111 y
b1 ?
b1 j
b1 x
b11111111 f
b0 "
b0 a
b0 (
b0 2
b0 w
b0 {
b0 @
b0 k
b0 u
b11010 o
0\
0_
b110101000000010111 >
b110101000000010111 p
1#
#1800
0#
#1850
b10011 5
b10010 4
1-
b10010 !
b10010 *
b10010 }
b10010 W
1\
b11010 $"
1#
#1900
0#
#1950
1M
0d
b1 3
b1 v
b1 f
b1 h
b1 O
b1 i
b1 0
b1 z
b1 P
b1 b
b1 $
b1 6
09
b10110 F
b10110 e
b10110 t
0-
b1 E
b1 n
b1 I
b1 q
0J
b0 A
b0 c
b0 l
b1 D
b1 m
b1 L
b1 s
0G
b0 1
b0 y
b0 ?
b0 j
b0 x
b10110 o
0\
b101100000000000001 >
b101100000000000001 p
1#
#2000
0#
#2050
b10100 5
b10011 4
1-
1]
b10011 !
b10011 *
b10011 }
b10011 W
1\
b10110 $"
1#
#2100
0#
#2150
1,
b111 5
b111 4
b111 3
b111 v
1d
b111 O
b111 i
b111 f
b111 h
b111 6
b111 P
b111 b
b111 0
b111 z
1<
b11000 F
b11000 e
b11000 t
0-
b111 E
b111 n
b111 I
b111 q
b11 A
b11 c
b11 l
b111 D
b111 m
b111 L
b111 s
b11000 o
0\
0]
b111 $
b110000000000000111 >
b110000000000000111 p
1#
#2200
0#
#2250
0,
1-
b10 !"
b111 !
b111 *
b111 }
b111 W
1\
b1 ""
b11000 $"
1#
#2300
0#
#2350
b0 3
b0 v
0d
b1000 5
1N
b0 O
b0 i
b0 h
b111 4
0,
b0 $
b0 6
b0 P
b0 b
b0 0
b0 z
0<
b0 F
b0 e
b0 t
0-
b0 E
b0 n
b0 I
b0 q
b1 K
b1 r
0C
b0 A
b0 c
b0 l
b0 D
b0 m
0H
b0 L
b0 s
bx f
bx "
bx a
bx (
bx 2
bx w
bx {
b100 @
b100 k
b100 u
b0 o
0\
b10000000000 >
b10000000000 p
1#
#2400
0#
#2450
b1001 5
b1000 4
1-
1Y
b1000 !
b1000 *
b1000 }
b1000 W
1\
b0 $"
1#
#2500
0#
#2550
b11000 3
b11000 v
0N
b11000 O
b11000 i
b11000 h
b11000 $
b11000 6
b11000 P
b11000 b
b11000 0
b11000 z
0-
b11000 E
b11000 n
b11000 I
b11000 q
1B
b11000 D
b11000 m
b100011000 L
b100011000 s
b11111111 1
b11111111 y
b1 ?
b1 j
b1 x
b101 @
b101 k
b101 u
0\
0Y
b0 )"
bx f
bx "
bx a
bx (
bx 2
bx w
bx {
b10100011000 >
b10100011000 p
1#
#2600
0#
#2650
b1010 5
b1001 4
1-
1Y
b1001 !
b1001 *
b1001 }
b1001 W
1\
1#
#2700
0#
#2750
1'
1g
b10111 3
b10111 v
b11111110 h
0Q
b10111 O
b10111 i
b0 $
b1 6
b1 P
b1 b
b1 0
b1 z
b1110 F
b1110 e
b1110 t
0-
b1 E
b1 n
b1 I
b1 q
1C
0B
b1 D
b1 m
1H
b100000001 L
b100000001 s
b0 1
b0 y
b0 ?
b0 j
b0 x
b1110 o
0\
0Y
b11000 *"
b100010111 f
b11000 "
b11000 a
b11000 (
b11000 2
b11000 w
b11000 {
b11100010100000001 >
b11100010100000001 p
1#
#2800
0#
#2850
b1011 5
b1010 4
1-
1_
1Y
b1010 !
b1010 *
b1010 }
b1010 W
1\
b1110 $"
1#
#2900
0#
#2950
1N
b11111111 h
b0 3
b0 v
b0 6
b0 P
b0 b
b0 0
b0 z
b1111 F
b1111 e
b1111 t
0-
0Q
b0 O
b0 i
b0 E
b0 n
b0 I
b0 q
0C
b0 D
b0 m
0H
b0 L
b0 s
b100 @
b100 k
b100 u
b1111 o
0\
0_
0Y
b10111 *"
b100000000 f
b0 "
b0 a
b0 (
b0 2
b0 w
b0 {
b11110010000000000 >
b11110010000000000 p
1#
#3000
0#
#3050
b1100 5
b1011 4
1-
1_
1Y
b1011 !
b1011 *
b1011 }
b1011 W
1\
b1111 $"
1#
#3100
0#
#3150
b1001 5
b1001 4
0g
0'
b0 h
19
b11010 F
b11010 e
b11010 t
0-
b1001 E
b1001 n
b1001 I
b1001 q
b11 K
b11 r
1J
1C
1B
b1001 D
b1001 m
1H
b1001 L
b1001 s
1G
bx f
bx "
bx a
bx (
bx 2
bx w
bx {
b1100 @
b1100 k
b1100 u
b11010 o
1^
0\
0_
0Y
b0 )"
b110101110000001001 >
b110101110000001001 p
1#
#3200
0#
#3250
1-
b1001 !
b1001 *
b1001 }
b1001 W
1\
b11010 $"
1#
#3300
0#
#3350
1'
1g
b1010 5
b10110 3
b10110 v
b1001 4
b11111110 h
b1 P
b1 b
b1 6
b1 0
b1 z
0Q
0N
b10110 O
b10110 i
09
b1110 F
b1110 e
b1110 t
0-
b1 E
b1 n
b1 I
b1 q
b1 K
b1 r
0J
0B
b1 D
b1 m
b100000001 L
b100000001 s
0G
b100010110 f
b10111 "
b10111 a
b10111 (
b10111 2
b10111 w
b10111 {
b101 @
b101 k
b101 u
b1110 o
0\
b11100010100000001 >
b11100010100000001 p
1#
#3400
0#
#3450
b1011 5
b1010 4
1-
1_
1Y
b1010 !
b1010 *
b1010 }
b1010 W
1\
b1110 $"
1#
#3500
0#
#3550
1N
b11111111 h
b0 3
b0 v
b0 6
b0 P
b0 b
b0 0
b0 z
b1111 F
b1111 e
b1111 t
0-
0Q
b0 O
b0 i
b0 E
b0 n
b0 I
b0 q
0C
b0 D
b0 m
0H
b0 L
b0 s
b100 @
b100 k
b100 u
b1111 o
0^
0\
0_
0Y
b10110 *"
b100000000 f
b0 "
b0 a
b0 (
b0 2
b0 w
b0 {
b11110010000000000 >
b11110010000000000 p
1#
#3600
0#
#3650
b1100 5
b1011 4
1-
1_
1Y
b1011 !
b1011 *
b1011 }
b1011 W
1\
b1111 $"
1#
#3700
0#
#3750
b1001 5
b1001 4
0g
0'
b0 h
19
b11010 F
b11010 e
b11010 t
0-
b1001 E
b1001 n
b1001 I
b1001 q
b11 K
b11 r
1J
1C
1B
b1001 D
b1001 m
1H
b1001 L
b1001 s
1G
bx f
bx "
bx a
bx (
bx 2
bx w
bx {
b1100 @
b1100 k
b1100 u
b11010 o
1^
0\
0_
0Y
b0 )"
b110101110000001001 >
b110101110000001001 p
1#
#3800
0#
#3850
1-
b1001 !
b1001 *
b1001 }
b1001 W
1\
b11010 $"
1#
#3900
0#
#3950
1'
1g
b1010 5
b10101 3
b10101 v
b1001 4
b11111110 h
b1 P
b1 b
b1 6
b1 0
b1 z
0Q
0N
b10101 O
b10101 i
09
b1110 F
b1110 e
b1110 t
0-
b1 E
b1 n
b1 I
b1 q
b1 K
b1 r
0J
0B
b1 D
b1 m
b100000001 L
b100000001 s
0G
b100010101 f
b10110 "
b10110 a
b10110 (
b10110 2
b10110 w
b10110 {
b101 @
b101 k
b101 u
b1110 o
0\
b11100010100000001 >
b11100010100000001 p
1#
#4000
0#
#4050
b1011 5
b1010 4
1-
1_
1Y
b1010 !
b1010 *
b1010 }
b1010 W
1\
b1110 $"
1#
#4100
0#
#4150
1N
b11111111 h
b0 3
b0 v
b0 6
b0 P
b0 b
b0 0
b0 z
b1111 F
b1111 e
b1111 t
0-
0Q
b0 O
b0 i
b0 E
b0 n
b0 I
b0 q
0C
b0 D
b0 m
0H
b0 L
b0 s
b100 @
b100 k
b100 u
b1111 o
0^
0\
0_
0Y
b10101 *"
b100000000 f
b0 "
b0 a
b0 (
b0 2
b0 w
b0 {
b11110010000000000 >
b11110010000000000 p
1#
#4200
0#
#4250
b1100 5
b1011 4
1-
1_
1Y
b1011 !
b1011 *
b1011 }
b1011 W
1\
b1111 $"
1#
#4300
0#
#4350
b1001 5
b1001 4
0g
0'
b0 h
19
b11010 F
b11010 e
b11010 t
0-
b1001 E
b1001 n
b1001 I
b1001 q
b11 K
b11 r
1J
1C
1B
b1001 D
b1001 m
1H
b1001 L
b1001 s
1G
bx f
bx "
bx a
bx (
bx 2
bx w
bx {
b1100 @
b1100 k
b1100 u
b11010 o
1^
0\
0_
0Y
b0 )"
b110101110000001001 >
b110101110000001001 p
1#
#4400
0#
#4450
1-
b1001 !
b1001 *
b1001 }
b1001 W
1\
b11010 $"
1#
#4500
0#
#4550
1'
1g
b1010 5
b10100 3
b10100 v
b1001 4
b11111110 h
b1 P
b1 b
b1 6
b1 0
b1 z
0Q
0N
b10100 O
b10100 i
09
b1110 F
b1110 e
b1110 t
0-
b1 E
b1 n
b1 I
b1 q
b1 K
b1 r
0J
0B
b1 D
b1 m
b100000001 L
b100000001 s
0G
b100010100 f
b10101 "
b10101 a
b10101 (
b10101 2
b10101 w
b10101 {
b101 @
b101 k
b101 u
b1110 o
0\
b11100010100000001 >
b11100010100000001 p
1#
#4600
0#
#4650
b1011 5
b1010 4
1-
1_
1Y
b1010 !
b1010 *
b1010 }
b1010 W
1\
b1110 $"
1#
#4700
0#
#4750
1N
b11111111 h
b0 3
b0 v
b0 6
b0 P
b0 b
b0 0
b0 z
b1111 F
b1111 e
b1111 t
0-
0Q
b0 O
b0 i
b0 E
b0 n
b0 I
b0 q
0C
b0 D
b0 m
0H
b0 L
b0 s
b100 @
b100 k
b100 u
b1111 o
0^
0\
0_
0Y
b10100 *"
b100000000 f
b0 "
b0 a
b0 (
b0 2
b0 w
b0 {
b11110010000000000 >
b11110010000000000 p
1#
#4800
0#
#4850
b1100 5
b1011 4
1-
1_
1Y
b1011 !
b1011 *
b1011 }
b1011 W
1\
b1111 $"
1#
#4900
0#
#4950
b1001 5
b1001 4
0g
0'
b0 h
19
b11010 F
b11010 e
b11010 t
0-
b1001 E
b1001 n
b1001 I
b1001 q
b11 K
b11 r
1J
1C
1B
b1001 D
b1001 m
1H
b1001 L
b1001 s
1G
bx f
bx "
bx a
bx (
bx 2
bx w
bx {
b1100 @
b1100 k
b1100 u
b11010 o
1^
0\
0_
0Y
b0 )"
b110101110000001001 >
b110101110000001001 p
1#
#5000
0#
#5050
1-
b1001 !
b1001 *
b1001 }
b1001 W
1\
b11010 $"
1#
#5100
0#
#5150
1'
1g
b1010 5
b10011 3
b10011 v
b1001 4
b11111110 h
b1 P
b1 b
b1 6
b1 0
b1 z
0Q
0N
b10011 O
b10011 i
09
b1110 F
b1110 e
b1110 t
0-
b1 E
b1 n
b1 I
b1 q
b1 K
b1 r
0J
0B
b1 D
b1 m
b100000001 L
b100000001 s
0G
b100010011 f
b10100 "
b10100 a
b10100 (
b10100 2
b10100 w
b10100 {
b101 @
b101 k
b101 u
b1110 o
0\
b11100010100000001 >
b11100010100000001 p
1#
#5200
0#
#5250
b1011 5
b1010 4
1-
1_
1Y
b1010 !
b1010 *
b1010 }
b1010 W
1\
b1110 $"
1#
#5300
0#
#5350
1N
b11111111 h
b0 3
b0 v
b0 6
b0 P
b0 b
b0 0
b0 z
b1111 F
b1111 e
b1111 t
0-
0Q
b0 O
b0 i
b0 E
b0 n
b0 I
b0 q
0C
b0 D
b0 m
0H
b0 L
b0 s
b100 @
b100 k
b100 u
b1111 o
0^
0\
0_
0Y
b10011 *"
b100000000 f
b0 "
b0 a
b0 (
b0 2
b0 w
b0 {
b11110010000000000 >
b11110010000000000 p
1#
#5400
0#
#5450
b1100 5
b1011 4
1-
1_
1Y
b1011 !
b1011 *
b1011 }
b1011 W
1\
b1111 $"
1#
#5500
0#
#5550
b1001 5
b1001 4
0g
0'
b0 h
19
b11010 F
b11010 e
b11010 t
0-
b1001 E
b1001 n
b1001 I
b1001 q
b11 K
b11 r
1J
1C
1B
b1001 D
b1001 m
1H
b1001 L
b1001 s
1G
bx f
bx "
bx a
bx (
bx 2
bx w
bx {
b1100 @
b1100 k
b1100 u
b11010 o
1^
0\
0_
0Y
b0 )"
b110101110000001001 >
b110101110000001001 p
1#
#5600
0#
#5650
1-
b1001 !
b1001 *
b1001 }
b1001 W
1\
b11010 $"
1#
#5700
0#
#5750
1'
1g
b1010 5
b10010 3
b10010 v
b1001 4
b11111110 h
b1 P
b1 b
b1 6
b1 0
b1 z
0Q
0N
b10010 O
b10010 i
09
b1110 F
b1110 e
b1110 t
0-
b1 E
b1 n
b1 I
b1 q
b1 K
b1 r
0J
0B
b1 D
b1 m
b100000001 L
b100000001 s
0G
b100010010 f
b10011 "
b10011 a
b10011 (
b10011 2
b10011 w
b10011 {
b101 @
b101 k
b101 u
b1110 o
0\
b11100010100000001 >
b11100010100000001 p
1#
#5800
0#
#5850
b1011 5
b1010 4
1-
1_
1Y
b1010 !
b1010 *
b1010 }
b1010 W
1\
b1110 $"
1#
#5900
0#
#5950
1N
b11111111 h
b0 3
b0 v
b0 6
b0 P
b0 b
b0 0
b0 z
b1111 F
b1111 e
b1111 t
0-
0Q
b0 O
b0 i
b0 E
b0 n
b0 I
b0 q
0C
b0 D
b0 m
0H
b0 L
b0 s
b100 @
b100 k
b100 u
b1111 o
0^
0\
0_
0Y
b10010 *"
b100000000 f
b0 "
b0 a
b0 (
b0 2
b0 w
b0 {
b11110010000000000 >
b11110010000000000 p
1#
#6000
0#
#6050
b1100 5
b1011 4
1-
1_
1Y
b1011 !
b1011 *
b1011 }
b1011 W
1\
b1111 $"
1#
#6100
0#
#6150
b1001 5
b1001 4
0g
0'
b0 h
19
b11010 F
b11010 e
b11010 t
0-
b1001 E
b1001 n
b1001 I
b1001 q
b11 K
b11 r
1J
1C
1B
b1001 D
b1001 m
1H
b1001 L
b1001 s
1G
bx f
bx "
bx a
bx (
bx 2
bx w
bx {
b1100 @
b1100 k
b1100 u
b11010 o
1^
0\
0_
0Y
b0 )"
b110101110000001001 >
b110101110000001001 p
1#
#6200
0#
#6250
1-
b1001 !
b1001 *
b1001 }
b1001 W
1\
b11010 $"
1#
#6300
0#
#6350
1'
1g
b1010 5
b10001 3
b10001 v
b1001 4
b11111110 h
b1 P
b1 b
b1 6
b1 0
b1 z
0Q
0N
b10001 O
b10001 i
09
b1110 F
b1110 e
b1110 t
0-
b1 E
b1 n
b1 I
b1 q
b1 K
b1 r
0J
0B
b1 D
b1 m
b100000001 L
b100000001 s
0G
b100010001 f
b10010 "
b10010 a
b10010 (
b10010 2
b10010 w
b10010 {
b101 @
b101 k
b101 u
b1110 o
0\
b11100010100000001 >
b11100010100000001 p
1#
#6400
0#
#6450
b1011 5
b1010 4
1-
1_
1Y
b1010 !
b1010 *
b1010 }
b1010 W
1\
b1110 $"
1#
#6500
0#
#6550
1N
b11111111 h
b0 3
b0 v
b0 6
b0 P
b0 b
b0 0
b0 z
b1111 F
b1111 e
b1111 t
0-
0Q
b0 O
b0 i
b0 E
b0 n
b0 I
b0 q
0C
b0 D
b0 m
0H
b0 L
b0 s
b100 @
b100 k
b100 u
b1111 o
0^
0\
0_
0Y
b10001 *"
b100000000 f
b0 "
b0 a
b0 (
b0 2
b0 w
b0 {
b11110010000000000 >
b11110010000000000 p
1#
#6600
0#
#6650
b1100 5
b1011 4
1-
1_
1Y
b1011 !
b1011 *
b1011 }
b1011 W
1\
b1111 $"
1#
#6700
0#
#6750
b1001 5
b1001 4
0g
0'
b0 h
19
b11010 F
b11010 e
b11010 t
0-
b1001 E
b1001 n
b1001 I
b1001 q
b11 K
b11 r
1J
1C
1B
b1001 D
b1001 m
1H
b1001 L
b1001 s
1G
bx f
bx "
bx a
bx (
bx 2
bx w
bx {
b1100 @
b1100 k
b1100 u
b11010 o
1^
0\
0_
0Y
b0 )"
b110101110000001001 >
b110101110000001001 p
1#
#6800
0#
#6850
1-
b1001 !
b1001 *
b1001 }
b1001 W
1\
b11010 $"
1#
#6900
0#
#6950
1'
1g
b1010 5
b10000 3
b10000 v
b1001 4
b11111110 h
b1 P
b1 b
b1 6
b1 0
b1 z
0Q
0N
b10000 O
b10000 i
09
b1110 F
b1110 e
b1110 t
0-
b1 E
b1 n
b1 I
b1 q
b1 K
b1 r
0J
0B
b1 D
b1 m
b100000001 L
b100000001 s
0G
b100010000 f
b10001 "
b10001 a
b10001 (
b10001 2
b10001 w
b10001 {
b101 @
b101 k
b101 u
b1110 o
0\
b11100010100000001 >
b11100010100000001 p
1#
#7000
0#
#7050
b1011 5
b1010 4
1-
1_
1Y
b1010 !
b1010 *
b1010 }
b1010 W
1\
b1110 $"
1#
#7100
0#
