pacoblaze/bamse_v1/iverilog/bamse.vcd
$date
	Sun Sep  8 16:56:48 2019
$end
$version
	Icarus Verilog
$end
$timescale
	1ps
$end
$scope module bamse_tb $end
$scope module dut $end
$var wire 1 ! clk $end
$var wire 1 " irq $end
$var wire 8 # pin [7:0] $end
$var wire 1 $ rst $end
$var wire 1 % wen $end
$var wire 1 & ren $end
$var wire 8 ' pout [7:0] $end
$var wire 8 ( portA_out [7:0] $end
$var wire 8 ) pid [7:0] $end
$var wire 1 * iak $end
$var wire 18 + din [17:0] $end
$var wire 10 , addr [9:0] $end
$scope module pblaze $end
$var wire 10 - address [9:0] $end
$var wire 8 . alu_operand_a [7:0] $end
$var wire 1 ! clk $end
$var wire 8 / in_port [7:0] $end
$var wire 1 " interrupt $end
$var wire 1 0 interrupt_assert $end
$var wire 1 1 is_alu $end
$var wire 8 2 out_port [7:0] $end
$var wire 1 $ reset $end
$var wire 10 3 stack_data_in [9:0] $end
$var wire 1 4 stack_push_pop $end
$var wire 1 5 stack_update_enable $end
$var wire 1 6 stack_write_enable $end
$var wire 10 7 stack_data_out [9:0] $end
$var wire 8 8 scratch_data_out [7:0] $end
$var wire 6 9 scratch_address [5:0] $end
$var wire 8 : register_y_data_out [7:0] $end
$var wire 8 ; register_x_data_out [7:0] $end
$var wire 8 < register_x_data_in [7:0] $end
$var wire 10 = program_counter_source [9:0] $end
$var wire 10 > program_counter_next [9:0] $end
$var wire 8 ? port_id [7:0] $end
$var wire 1 @ is_returni $end
$var wire 1 A is_return $end
$var wire 1 B is_jump $end
$var wire 1 C is_input $end
$var wire 1 D is_fetch $end
$var wire 1 E is_call $end
$var wire 1 F internal_reset $end
$var wire 18 G instruction [17:0] $end
$var wire 4 H idu_y_address [3:0] $end
$var wire 4 I idu_x_address [3:0] $end
$var wire 3 J idu_shift_operation [2:0] $end
$var wire 1 K idu_shift_direction $end
$var wire 1 L idu_shift_constant $end
$var wire 6 M idu_scratch_address [5:0] $end
$var wire 8 N idu_port_address [7:0] $end
$var wire 5 O idu_operation [4:0] $end
$var wire 1 P idu_operand_selection $end
$var wire 1 Q idu_interrupt_enable $end
$var wire 8 R idu_implied_value [7:0] $end
$var wire 1 S idu_conditional $end
$var wire 2 T idu_condition_flags [1:0] $end
$var wire 10 U idu_code_address [9:0] $end
$var wire 1 V conditional_match $end
$var wire 1 W alu_zero_out $end
$var wire 8 X alu_result [7:0] $end
$var wire 8 Y alu_operand_b [7:0] $end
$var wire 1 Z alu_carry_out $end
$var reg 1 [ carry $end
$var reg 1 \ carry_saved $end
$var reg 1 * interrupt_ack $end
$var reg 1 ] interrupt_enable $end
$var reg 1 ^ interrupt_latch $end
$var reg 10 _ program_counter [9:0] $end
$var reg 1 & read_strobe $end
$var reg 1 ` register_x_write_enable $end
$var reg 2 a reset_latch [1:0] $end
$var reg 1 b scratch_write_enable $end
$var reg 1 c timing_control $end
$var reg 1 % write_strobe $end
$var reg 1 d zero $end
$var reg 1 e zero_carry_write_enable $end
$var reg 1 f zero_saved $end
$scope module alu $end
$var wire 1 [ carry_in $end
$var wire 8 g operand_a [7:0] $end
$var wire 8 h operand_b [7:0] $end
$var wire 1 W zero_out $end
$var wire 3 i shift_operation [2:0] $end
$var wire 1 K shift_direction $end
$var wire 1 L shift_constant $end
$var wire 1 j shift_bit $end
$var wire 5 k operation [4:0] $end
$var wire 9 l addsub_result [8:0] $end
$var wire 1 m addsub_carry $end
$var wire 8 n addsub_b [7:0] $end
$var reg 1 Z carry_out $end
$var reg 8 o result [7:0] $end
$scope begin on_alu $end
$upscope $end
$upscope $end
$scope module idu $end
$var wire 4 p y_address [3:0] $end
$var wire 4 q x_address [3:0] $end
$var wire 3 r shift_operation [2:0] $end
$var wire 1 K shift_direction $end
$var wire 1 L shift_constant $end
$var wire 6 s scratch_address [5:0] $end
$var wire 8 t port_address [7:0] $end
$var wire 1 P operand_selection $end
$var wire 1 Q interrupt_enable $end
$var wire 5 u instruction_0 [4:0] $end
$var wire 18 v instruction [17:0] $end
$var wire 8 w implied_value [7:0] $end
$var wire 1 S conditional $end
$var wire 2 x condition_flags [1:0] $end
$var wire 10 y code_address [9:0] $end
$var reg 5 z operation [4:0] $end
$upscope $end
$scope module register $end
$var wire 1 ! clk $end
$var wire 1 $ reset $end
$var wire 4 { x_address [3:0] $end
$var wire 8 | x_data_in [7:0] $end
$var wire 8 } x_data_out [7:0] $end
$var wire 1 ` x_write_enable $end
$var wire 4 ~ y_address [3:0] $end
$var wire 8 !" y_data_out [7:0] $end
$upscope $end
$scope module scratch $end
$var wire 6 "" address [5:0] $end
$var wire 1 ! clk $end
$var wire 8 #" data_in [7:0] $end
$var wire 8 $" data_out [7:0] $end
$var wire 1 $ reset $end
$var wire 1 b write_enable $end
$upscope $end
$scope module stack $end
$var wire 1 ! clk $end
$var wire 10 %" data_in [9:0] $end
$var wire 10 &" data_out [9:0] $end
$var wire 1 4 push_pop $end
$var wire 1 $ reset $end
$var wire 1 5 update_enable $end
$var wire 1 6 write_enable $end
$var wire 5 '" ptr_1 [4:0] $end
$var reg 5 (" ptr [4:0] $end
$var integer 32 )" i [31:0] $end
$upscope $end
$scope begin on_reset $end
$upscope $end
$scope begin seq $end
$scope begin on_internal_reset $end
$upscope $end
$scope begin on_run $end
$upscope $end
$upscope $end
$scope task execute $end
$var reg 5 *" operation [4:0] $end
$upscope $end
$upscope $end
$scope module portA $end
$var wire 8 +" address [7:0] $end
$var wire 1 $ rst $end
$var wire 8 ," value_in [7:0] $end
$var wire 1 % wen $end
$var reg 8 -" port_out [7:0] $end
$upscope $end
$scope module rom $end
$var wire 10 ." addr [9:0] $end
$var wire 1 ! clk $end
$var wire 18 /" din [17:0] $end
$var wire 1 0" enb $end
$var wire 1 $ rst $end
$var wire 1 1" wen $end
$var reg 18 2" dout [17:0] $end
$upscope $end
$upscope $end
$upscope $end
$scope module bamse_tb $end
$scope module dut $end
$scope module pblaze $end
$scope module register $end
$var reg 8 3" \dpr[0] [7:0] $end
$upscope $end
$upscope $end
$upscope $end
$upscope $end
$scope module bamse_tb $end
$scope module dut $end
$scope module pblaze $end
$scope module register $end
$var reg 8 4" \dpr[1] [7:0] $end
$upscope $end
$upscope $end
$upscope $end
$upscope $end
$scope module bamse_tb $end
$scope module dut $end
$scope module pblaze $end
$scope module register $end
$var reg 8 5" \dpr[2] [7:0] $end
$upscope $end
$upscope $end
$upscope $end
$upscope $end
$scope module bamse_tb $end
$scope module dut $end
$scope module pblaze $end
$scope module register $end
$var reg 8 6" \dpr[3] [7:0] $end
$upscope $end
$upscope $end
$upscope $end
$upscope $end
$scope module bamse_tb $end
$scope module dut $end
$scope module pblaze $end
$scope module register $end
$var reg 8 7" \dpr[4] [7:0] $end
$upscope $end
$upscope $end
$upscope $end
$upscope $end
$scope module bamse_tb $end
$scope module dut $end
$scope module pblaze $end
$scope module register $end
$var reg 8 8" \dpr[5] [7:0] $end
$upscope $end
$upscope $end
$upscope $end
$upscope $end
$scope module bamse_tb $end
$scope module dut $end
$scope module pblaze $end
$scope module register $end
$var reg 8 9" \dpr[6] [7:0] $end
$upscope $end
$upscope $end
$upscope $end
$upscope $end
$scope module bamse_tb $end
$scope module dut $end
$scope module pblaze $end
$scope module register $end
$var reg 8 :" \dpr[7] [7:0] $end
$upscope $end
$upscope $end
$upscope $end
$upscope $end
$scope module bamse_tb $end
$scope module dut $end
$scope module pblaze $end
$scope module register $end
$var reg 8 ;" \dpr[8] [7:0] $end
$upscope $end
$upscope $end
$upscope $end
$upscope $end
$scope module bamse_tb $end
$scope module dut $end
$scope module pblaze $end
$scope module register $end
$var reg 8 <" \dpr[9] [7:0] $end
$upscope $end
$upscope $end
$upscope $end
$upscope $end
$scope module bamse_tb $end
$scope module dut $end
$scope module pblaze $end
$scope module register $end
$var reg 8 =" \dpr[10] [7:0] $end
$upscope $end
$upscope $end
$upscope $end
$upscope $end
$scope module bamse_tb $end
$scope module dut $end
$scope module pblaze $end
$scope module register $end
$var reg 8 >" \dpr[11] [7:0] $end
$upscope $end
$upscope $end
$upscope $end
$upscope $end
$scope module bamse_tb $end
$scope module dut $end
$scope module pblaze $end
$scope module register $end
$var reg 8 ?" \dpr[12] [7:0] $end
$upscope $end
$upscope $end
$upscope $end
$upscope $end
$scope module bamse_tb $end
$scope module dut $end
$scope module pblaze $end
$scope module register $end
$var reg 8 @" \dpr[13] [7:0] $end
$upscope $end
$upscope $end
$upscope $end
$upscope $end
$scope module bamse_tb $end
$scope module dut $end
$scope module pblaze $end
$scope module register $end
$var reg 8 A" \dpr[14] [7:0] $end
$upscope $end
$upscope $end
$upscope $end
$upscope $end
$scope module bamse_tb $end
$scope module dut $end
$scope module pblaze $end
$scope module register $end
$var reg 8 B" \dpr[15] [7:0] $end
$upscope $end
$upscope $end
$upscope $end
$upscope $end
$enddefinitions $end
#0
$dumpvars
bx B"
bx A"
bx @"
bx ?"
bx >"
bx ="
bx <"
bx ;"
bx :"
bx 9"
bx 8"
bx 7"
bx 6"
bx 5"
bx 4"
bx 3"
bx 2"
01"
10"
b0 /"
bx ."
b0 -"
bx ,"
bx +"
bx *"
b100000 )"
bx ("
bx '"
bx &"
bx %"
bx $"
bx #"
bx ""
bx !"
bx ~
bx }
bx |
bx {
bx z
bx y
bx x
bx w
bx v
bx u
bx t
bx s
b0xx r
bx q
bx p
bx o
bx n
xm
bx l
bx k
xj
b0xx i
bx h
bx g
xf
xe
xd
xc
xb
bx a
x`
bx _
x^
x]
x\
x[
0Z
bx Y
bx X
xW
xV
bx U
bx T
xS
bx R
xQ
xP
bx O
bx N
bx M
xL
xK
b0xx J
bx I
bx H
bx G
xF
xE
xD
xC
xB
xA
x@
bx ?
bx >
bx =
bx <
bx ;
bx :
bx 9
bx 8
bx 7
x6
x5
x4
bx 3
bx 2
x1
00
b0 /
bx .
bx -
bx ,
bx +
x*
bx )
b0 (
bx '
x&
x%
1$
b0 #
0"
0!
$end
#15625
16
1F
bx1 '"
0e
0*
0b
0`
0%
0&
b11 a
b0 ("
1!
#31250
0!
#46875
0^
0]
0[
0d
b0 ,
b0 -
b0 ."
b0 3
b0 %"
b0 _
0c
1!
#62500
0$
0!
#78125
1V
05
b1 >
0m
b0 7
b0 &"
b1 '"
b0 =
14
1j
b111111 n
b111111 <
b111111 |
01
0W
b111111 X
b111111 o
b111111 Y
b111111 h
b111111 )
b111111 ?
b111111 +"
b111111 9
b111111 ""
0D
0C
0@
0A
0E
0B
b0 O
b0 k
b0 z
b111111 N
b111111 t
b111111 R
b111111 w
b11 T
b11 x
0S
1L
b11 J
b11 i
b11 r
1K
b111111 M
b111111 s
1Q
b1100111111 U
b1100111111 y
0P
b11 H
b11 p
b11 ~
b1111 I
b1111 q
b1111 {
b0 u
b10 a
b111100111111 +
b111100111111 G
b111100111111 v
b111100111111 2"
1!
#93750
0!
#109375
06
0F
b0 a
1!
#125000
0!
#140625
b10 >
b1 =
16
1`
b1 ,
b1 -
b1 ."
b1 3
b1 %"
b1 _
1c
b0 *"
1!
#156250
0!
#171875
b0 <
b0 |
0j
1W
b0 X
b0 o
b0 n
b0 )
b0 ?
b0 +"
b0 Y
b0 h
b0 9
b0 ""
06
b0 N
b0 t
b0 R
b0 w
0L
b0 J
b0 i
b0 r
0K
b0 M
b0 s
0Q
b100000000 U
b100000000 y
b0 H
b0 p
b0 ~
b1101 I
b1101 q
b1101 {
0c
0`
b111111 B"
bx l
bx .
bx g
bx '
bx 2
bx ,"
bx ;
bx }
bx #"
b110100000000 +
b110100000000 G
b110100000000 v
b110100000000 2"
1!
#187500
0!
#203125
b11 >
b10 =
16
1`
b10 ,
b10 -
b10 ."
b10 3
b10 %"
b10 _
1c
1!
#218750
0!
#234375
b110 >
b110 =
b110 <
b110 |
b110 n
0W
b110 X
b110 o
b110 )
b110 ?
b110 +"
b110 Y
b110 h
b110 9
b110 ""
1B
b11010 O
b11010 k
b11010 z
06
b110 N
b110 t
b110 R
b110 w
b0 T
b0 x
b11 J
b11 i
b11 r
b110 M
b110 s
b110 U
b110 y
b0 I
b0 q
b0 {
b11010 u
0c
0`
b0 @"
bx l
bx .
bx g
bx '
bx 2
bx ,"
bx ;
bx }
bx #"
b110100000000000110 +
b110100000000000110 G
b110100000000000110 v
b110100000000000110 2"
1!
#250000
0!
#265625
16
b110 ,
b110 -
b110 ."
b110 3
b110 %"
b110 _
1c
b11010 *"
1!
#281250
0!
#296875
b1110 <
b1110 |
b1110 >
b1110 X
b1110 o
b1110 n
b1110 =
b1110 )
b1110 ?
b1110 +"
b1110 Y
b1110 h
b1110 9
b1110 ""
06
b1110 N
b1110 t
b1110 R
b1110 w
1K
b1110 M
b1110 s
b1110 U
b1110 y
0c
b110100000000001110 +
b110100000000001110 G
b110100000000001110 v
b110100000000001110 2"
1!
#312500
0!
#328125
16
b1110 ,
b1110 -
b1110 ."
b1110 3
b1110 %"
b1110 _
1c
1!
#343750
0!
#359375
b0 <
b0 |
b1111 >
1W
b0 X
b0 o
b0 n
b1110 =
b0 )
b0 ?
b0 +"
b0 Y
b0 h
b0 9
b0 ""
0B
b0 O
b0 k
b0 z
06
b0 N
b0 t
b0 R
b0 w
b0 J
b0 i
b0 r
0K
b0 M
b0 s
b0 U
b0 y
b0 u
0c
b0 +
b0 G
b0 v
b0 2"
1!
#375000
0!
#390625
b10000 >
b1111 =
16
1`
b1111 ,
b1111 -
b1111 ."
b1111 3
b1111 %"
b1111 _
1c
b0 *"
1!
#406250
0!
#421875
b11111111 <
b11111111 |
1j
0W
b11111111 X
b11111111 o
b11111111 n
b11111111 )
b11111111 ?
b11111111 +"
b11111111 Y
b11111111 h
b111111 9
b111111 ""
06
b11111111 N
b11111111 t
b11111111 R
b11111111 w
1L
b11 J
b11 i
b11 r
1K
b111111 M
b111111 s
1Q
b111111111 U
b111111111 y
b1111 H
b1111 p
b1111 ~
b1 I
b1 q
b1 {
0c
0`
b0 3"
bx l
bx .
bx g
bx '
bx 2
bx ,"
bx ;
bx }
bx #"
b111111 :
b111111 !"
b111111111 +
b111111111 G
b111111111 v
b111111111 2"
1!
#437500
0!
#453125
b10001 >
b10000 =
16
1`
b10000 ,
b10000 -
b10000 ."
b10000 3
b10000 %"
b10000 _
1c
1!
#468750
0!
#484375
1m
b11111111 <
b11111111 |
0Z
0j
11
b11111111 n
b11111111 X
b11111111 o
b0 )
b0 ?
b0 +"
b0 Y
b0 h
b0 9
b0 ""
b1010 O
b1010 k
b1010 z
06
b0 N
b0 t
b0 R
b0 w
0L
b0 J
b0 i
b0 r
0K
b0 M
b0 s
0Q
b100000000 U
b100000000 y
b0 :
b0 !"
b0 H
b0 p
b0 ~
b1010 u
0c
0`
b11111111 4"
b111111111 l
b11111111 .
b11111111 g
b11111111 '
b11111111 2
b11111111 ,"
b11111111 ;
b11111111 }
b11111111 #"
b10100000100000000 +
b10100000100000000 G
b10100000100000000 v
b10100000100000000 2"
1!
#500000
0!
#515625
b10010 >
b10001 =
16
1e
b10001 ,
b10001 -
b10001 ."
b10001 3
b10001 %"
b10001 _
1c
b1010 *"
1!
#531250
0!
#546875
0V
b10010 >
b10001 =
0m
1j
b11111111 <
b11111111 |
01
b11111111 Y
b11111111 h
b11111111 )
b11111111 ?
b11111111 +"
b111111 9
b111111 ""
0W
b11111111 X
b11111111 o
1B
b11010 O
b11010 k
b11010 z
06
b10111 N
b10111 t
b10111 R
b10111 w
1S
1L
b11 J
b11 i
b11 r
b10111 M
b10111 s
1Q
b10111 U
b10111 y
1P
b11111111 :
b11111111 !"
b1 H
b1 p
b1 ~
b11111111 l
b0 .
b0 g
b0 '
b0 2
b0 ,"
b0 ;
b0 }
b0 #"
b0 I
b0 q
b0 {
b11010 u
0c
0e
b110101000000010111 +
b110101000000010111 G
b110101000000010111 v
b110101000000010111 2"
1!
#562500
0!
#578125
b10011 >
b10010 =
16
b10010 ,
b10010 -
b10010 ."
b10010 3
b10010 %"
b10010 _
1c
b11010 *"
1!
#593750
0!
#609375
1V
0j
b1 <
b1 |
b1 l
b1 n
b1 X
b1 o
b1 9
b1 ""
b1 Y
b1 h
b1 )
b1 ?
b1 +"
0B
b10110 O
b10110 k
b10110 z
06
b1 N
b1 t
b1 R
b1 w
0S
b0 J
b0 i
b0 r
b1 M
b1 s
b1 U
b1 y
0P
b0 :
b0 !"
b0 H
b0 p
b0 ~
b10110 u
0c
b101100000000000001 +
b101100000000000001 G
b101100000000000001 v
b101100000000000001 2"
1!
#625000
0!
#640625
b10100 >
b10011 =
16
1%
b10011 ,
b10011 -
b10011 ."
b10011 3
b10011 %"
b10011 _
1c
b10110 *"
1!
#656250
0!
#671875
15
b111 >
b111 =
b111 <
b111 |
1j
b111 X
b111 o
b111 l
b111 n
b111 )
b111 ?
b111 +"
b111 Y
b111 h
b111 9
b111 ""
1E
b11000 O
b11000 k
b11000 z
06
b111 N
b111 t
b111 R
b111 w
b11 J
b11 i
b11 r
b111 M
b111 s
b111 U
b111 y
b11000 u
0c
0%
b110000000000000111 +
b110000000000000111 G
b110000000000000111 v
b110000000000000111 2"
1!
#687500
0!
#703125
05
16
b10 '"
b111 ,
b111 -
b111 ."
b111 3
b111 %"
b111 _
1c
b1 ("
b11000 *"
1!
#718750
0!
#734375
b101001 <
b101001 |
0j
b1000 >
b101001 X
b101001 o
b101001 n
b111 =
05
b101001 )
b101001 ?
b101001 +"
b101001 Y
b101001 h
b101001 9
b101001 ""
0E
b0 O
b0 k
b0 z
06
b101001 N
b101001 t
b101001 R
b101001 w
b1 T
b1 x
b0 J
b0 i
b0 r
1K
b101001 M
b101001 s
b101001 U
b101001 y
bx :
bx !"
b10 H
b10 p
b10 ~
bx l
bx .
bx g
bx '
bx 2
bx ,"
bx ;
bx }
bx #"
b100 I
b100 q
b100 {
b0 u
0c
b10000101001 +
b10000101001 G
b10000101001 v
b10000101001 2"
1!
#750000
0!
#765625
b1001 >
b1000 =
16
1`
b1000 ,
b1000 -
b1000 ."
b1000 3
b1000 %"
b1000 _
1c
b0 *"
1!
#781250
0!
#796875
b10101000 <
b10101000 |
b10101000 X
b10101000 o
b10101000 n
b10101000 )
b10101000 ?
b10101000 +"
b10101000 Y
b10101000 h
b101000 9
b101000 ""
06
b10101000 N
b10101000 t
b10101000 R
b10101000 w
0L
b101000 M
b101000 s
0Q
b110101000 U
b110101000 y
b1010 H
b1010 p
b1010 ~
b101 I
b101 q
b101 {
0c
0`
b101001 7"
bx l
bx .
bx g
bx '
bx 2
bx ,"
bx ;
bx }
bx #"
b10110101000 +
b10110101000 G
b10110101000 v
b10110101000 2"
1!
#812500
0!
#828125
b1010 >
b1001 =
16
1`
b1001 ,
b1001 -
b1001 ."
b1001 3
b1001 %"
b1001 _
1c
1!
#843750
0!
#859375
11
1m
b10100111 <
b10100111 |
0Z
b11111110 n
b10100111 X
b10100111 o
b1 )
b1 ?
b1 +"
b1 Y
b1 h
b1 9
b1 ""
b1110 O
b1110 k
b1110 z
06
b1 N
b1 t
b1 R
b1 w
1L
0K
b1 M
b1 s
1Q
b100000001 U
b100000001 y
b0 :
b0 !"
b0 H
b0 p
b0 ~
b1110 u
0c
0`
b10101000 8"
b110100111 l
b10101000 .
b10101000 g
b10101000 '
b10101000 2
b10101000 ,"
b10101000 ;
b10101000 }
b10101000 #"
b11100010100000001 +
b11100010100000001 G
b11100010100000001 v
b11100010100000001 2"
1!
#875000
0!
#890625
b1011 >
b1010 =
16
1e
1`
b1010 ,
b1010 -
b1010 ."
b1010 3
b1010 %"
b1010 _
1c
b1110 *"
1!
#906250
0!
#921875
b11111111 n
b101001 <
b101001 |
b0 )
b0 ?
b0 +"
b0 Y
b0 h
b0 9
b0 ""
b1111 O
b1111 k
b1111 z
06
b101001 X
b101001 o
b0 N
b0 t
b0 R
b0 w
0L
b0 M
b0 s
0Q
b0 U
b0 y
b100 I
b100 q
b100 {
b1111 u
0c
0e
0`
b10100111 8"
b100101001 l
b101001 .
b101001 g
b101001 '
b101001 2
b101001 ,"
b101001 ;
b101001 }
b101001 #"
b11110010000000000 +
b11110010000000000 G
b11110010000000000 v
b11110010000000000 2"
1!
#937500
0!
#953125
b1100 >
b1011 =
16
1e
1`
b1011 ,
b1011 -
b1011 ."
b1011 3
b1011 %"
b1011 _
1c
b1111 *"
1!
#968750
0!
#984375
b1001 >
b1001 =
0m
01
b0 n
b0 <
b0 |
1W
b0 X
b0 o
1B
b11010 O
b11010 k
b11010 z
06
b1001 N
b1001 t
b1001 R
b1001 w
b11 T
b11 x
1S
1L
1K
b1001 M
b1001 s
1Q
b1001 U
b1001 y
1P
bx l
bx .
bx g
bx '
bx 2
bx ,"
bx ;
bx }
bx #"
b1100 I
b1100 q
b1100 {
b11010 u
0c
0e
0`
b101001 7"
b110101110000001001 +
b110101110000001001 G
b110101110000001001 v
b110101110000001001 2"
1!
#1000000
0!
#1015625
16
b1001 ,
b1001 -
b1001 ."
b1001 3
b1001 %"
b1001 _
1c
b11010 *"
1!
#1031250
0!
#1046875
11
1m
b1010 >
b10100110 <
b10100110 |
b1001 =
b11111110 n
b1 Y
b1 h
b1 )
b1 ?
b1 +"
b1 9
b1 ""
0Z
0W
b10100110 X
b10100110 o
0B
b1110 O
b1110 k
b1110 z
06
b1 N
b1 t
b1 R
b1 w
b1 T
b1 x
0S
0K
b1 M
b1 s
b100000001 U
b100000001 y
0P
b110100110 l
b10100111 .
b10100111 g
b10100111 '
b10100111 2
b10100111 ,"
b10100111 ;
b10100111 }
b10100111 #"
b101 I
b101 q
b101 {
b1110 u
0c
b11100010100000001 +
b11100010100000001 G
b11100010100000001 v
b11100010100000001 2"
1!
#1062500
0!
#1078125
b1011 >
b1010 =
16
1e
1`
b1010 ,
b1010 -
b1010 ."
b1010 3
b1010 %"
b1010 _
1c
b1110 *"
1!
#1093750
0!
#1109375
b11111111 n
b101001 <
b101001 |
b0 )
b0 ?
b0 +"
b0 Y
b0 h
b0 9
b0 ""
b1111 O
b1111 k
b1111 z
06
b101001 X
b101001 o
b0 N
b0 t
b0 R
b0 w
0L
b0 M
b0 s
0Q
b0 U
b0 y
b100 I
b100 q
b100 {
b1111 u
0c
0e
0`
b10100110 8"
b100101001 l
b101001 .
b101001 g
b101001 '
b101001 2
b101001 ,"
b101001 ;
b101001 }
b101001 #"
b11110010000000000 +
b11110010000000000 G
b11110010000000000 v
b11110010000000000 2"
1!
#1125000
0!
#1140625
b1100 >
b1011 =
16
1e
1`
b1011 ,
b1011 -
b1011 ."
b1011 3
b1011 %"
b1011 _
1c
b1111 *"
1!
#1156250
0!
#1171875
b1001 >
b1001 =
0m
01
b0 n
b0 <
b0 |
1W
b0 X
b0 o
1B
b11010 O
b11010 k
b11010 z
06
b1001 N
b1001 t
b1001 R
b1001 w
b11 T
b11 x
1S
1L
1K
b1001 M
b1001 s
1Q
b1001 U
b1001 y
1P
bx l
bx .
bx g
bx '
bx 2
bx ,"
bx ;
bx }
bx #"
b1100 I
b1100 q
b1100 {
b11010 u
0c
0e
0`
b101001 7"
b110101110000001001 +
b110101110000001001 G
b110101110000001001 v
b110101110000001001 2"
1!
#1187500
0!
#1203125
16
b1001 ,
b1001 -
b1001 ."
b1001 3
b1001 %"
b1001 _
1c
b11010 *"
1!
#1218750
0!
#1234375
11
1m
b1010 >
b10100101 <
b10100101 |
b1001 =
b11111110 n
b1 Y
b1 h
b1 )
b1 ?
b1 +"
b1 9
b1 ""
0Z
0W
b10100101 X
b10100101 o
0B
b1110 O
b1110 k
b1110 z
06
b1 N
b1 t
b1 R
b1 w
b1 T
b1 x
0S
0K
b1 M
b1 s
b100000001 U
b100000001 y
0P
b110100101 l
b10100110 .
b10100110 g
b10100110 '
b10100110 2
b10100110 ,"
b10100110 ;
b10100110 }
b10100110 #"
b101 I
b101 q
b101 {
b1110 u
0c
b11100010100000001 +
b11100010100000001 G
b11100010100000001 v
b11100010100000001 2"
1!
#1250000
0!
#1265625
b1011 >
b1010 =
16
1e
1`
b1010 ,
b1010 -
b1010 ."
b1010 3
b1010 %"
b1010 _
1c
b1110 *"
1!
#1281250
0!
#1296875
b11111111 n
b101001 <
b101001 |
b0 )
b0 ?
b0 +"
b0 Y
b0 h
b0 9
b0 ""
b1111 O
b1111 k
b1111 z
06
b101001 X
b101001 o
b0 N
b0 t
b0 R
b0 w
0L
b0 M
b0 s
0Q
b0 U
b0 y
b100 I
b100 q
b100 {
b1111 u
0c
0e
0`
b10100101 8"
b100101001 l
b101001 .
b101001 g
b101001 '
b101001 2
b101001 ,"
b101001 ;
b101001 }
b101001 #"
b11110010000000000 +
b11110010000000000 G
b11110010000000000 v
b11110010000000000 2"
1!
#1312500
0!
#1328125
b1100 >
b1011 =
16
1e
1`
b1011 ,
b1011 -
b1011 ."
b1011 3
b1011 %"
b1011 _
1c
b1111 *"
1!
#1343750
0!
#1359375
b1001 >
b1001 =
0m
01
b0 n
b0 <
b0 |
1W
b0 X
b0 o
1B
b11010 O
b11010 k
b11010 z
06
b1001 N
b1001 t
b1001 R
b1001 w
b11 T
b11 x
1S
1L
1K
b1001 M
b1001 s
1Q
b1001 U
b1001 y
1P
bx l
bx .
bx g
bx '
bx 2
bx ,"
bx ;
bx }
bx #"
b1100 I
b1100 q
b1100 {
b11010 u
0c
0e
0`
b101001 7"
b110101110000001001 +
b110101110000001001 G
b110101110000001001 v
b110101110000001001 2"
1!
#1375000
0!
#1390625
16
b1001 ,
b1001 -
b1001 ."
b1001 3
b1001 %"
b1001 _
1c
b11010 *"
1!
#1406250
0!
#1421875
11
1m
b1010 >
b10100100 <
b10100100 |
b1001 =
b11111110 n
b1 Y
b1 h
b1 )
b1 ?
b1 +"
b1 9
b1 ""
0Z
0W
b10100100 X
b10100100 o
0B
b1110 O
b1110 k
b1110 z
06
b1 N
b1 t
b1 R
b1 w
b1 T
b1 x
0S
0K
b1 M
b1 s
b100000001 U
b100000001 y
0P
b110100100 l
b10100101 .
b10100101 g
b10100101 '
b10100101 2
b10100101 ,"
b10100101 ;
b10100101 }
b10100101 #"
b101 I
b101 q
b101 {
b1110 u
0c
b11100010100000001 +
b11100010100000001 G
b11100010100000001 v
b11100010100000001 2"
1!
#1437500
0!
#1453125
b1011 >
b1010 =
16
1e
1`
b1010 ,
b1010 -
b1010 ."
b1010 3
b1010 %"
b1010 _
1c
b1110 *"
1!
#1468750
0!
#1484375
b11111111 n
b101001 <
b101001 |
b0 )
b0 ?
b0 +"
b0 Y
b0 h
b0 9
b0 ""
b1111 O
b1111 k
b1111 z
06
b101001 X
b101001 o
b0 N
b0 t
b0 R
b0 w
0L
b0 M
b0 s
0Q
b0 U
b0 y
b100 I
b100 q
b100 {
b1111 u
0c
0e
0`
b10100100 8"
b100101001 l
b101001 .
b101001 g
b101001 '
b101001 2
b101001 ,"
b101001 ;
b101001 }
b101001 #"
b11110010000000000 +
b11110010000000000 G
b11110010000000000 v
b11110010000000000 2"
1!
#1500000
0!
#1515625
b1100 >
b1011 =
16
1e
1`
b1011 ,
b1011 -
b1011 ."
b1011 3
b1011 %"
b1011 _
1c
b1111 *"
1!
#1531250
0!
#1546875
b1001 >
b1001 =
0m
01
b0 n
b0 <
b0 |
1W
b0 X
b0 o
1B
b11010 O
b11010 k
b11010 z
06
b1001 N
b1001 t
b1001 R
b1001 w
b11 T
b11 x
1S
1L
1K
b1001 M
b1001 s
1Q
b1001 U
b1001 y
1P
bx l
bx .
bx g
bx '
bx 2
bx ,"
bx ;
bx }
bx #"
b1100 I
b1100 q
b1100 {
b11010 u
0c
0e
0`
b101001 7"
b110101110000001001 +
b110101110000001001 G
b110101110000001001 v
b110101110000001001 2"
1!
#1562500
0!
#1578125
16
b1001 ,
b1001 -
b1001 ."
b1001 3
b1001 %"
b1001 _
1c
b11010 *"
1!
#1593750
0!
#1609375
11
1m
b1010 >
b10100011 <
b10100011 |
b1001 =
b11111110 n
b1 Y
b1 h
b1 )
b1 ?
b1 +"
b1 9
b1 ""
0Z
0W
b10100011 X
b10100011 o
0B
b1110 O
b1110 k
b1110 z
06
b1 N
b1 t
b1 R
b1 w
b1 T
b1 x
0S
0K
b1 M
b1 s
b100000001 U
b100000001 y
0P
b110100011 l
b10100100 .
b10100100 g
b10100100 '
b10100100 2
b10100100 ,"
b10100100 ;
b10100100 }
b10100100 #"
b101 I
b101 q
b101 {
b1110 u
0c
b11100010100000001 +
b11100010100000001 G
b11100010100000001 v
b11100010100000001 2"
1!
#1625000
0!
#1640625
b1011 >
b1010 =
16
1e
1`
b1010 ,
b1010 -
b1010 ."
b1010 3
b1010 %"
b1010 _
1c
b1110 *"
1!
#1656250
0!
#1671875
b11111111 n
b101001 <
b101001 |
b0 )
b0 ?
b0 +"
b0 Y
b0 h
b0 9
b0 ""
b1111 O
b1111 k
b1111 z
06
b101001 X
b101001 o
b0 N
b0 t
b0 R
b0 w
0L
b0 M
b0 s
0Q
b0 U
b0 y
b100 I
b100 q
b100 {
b1111 u
0c
0e
0`
b10100011 8"
b100101001 l
b101001 .
b101001 g
b101001 '
b101001 2
b101001 ,"
b101001 ;
b101001 }
b101001 #"
b11110010000000000 +
b11110010000000000 G
b11110010000000000 v
b11110010000000000 2"
1!
#1687500
0!
#1703125
b1100 >
b1011 =
16
1e
1`
b1011 ,
b1011 -
b1011 ."
b1011 3
b1011 %"
b1011 _
1c
b1111 *"
1!
#1718750
0!
